Command line:
   sh1_sh1_sch_tb_isim_beh.exe
     -simmode  gui
     -simrunnum  0
     -socket  28633

Wed Dec 20 09:54:52 2017


 Elaboration Time: 0.125 sec

 Current Memory Usage: 373.502 Meg

 Total Signals          : 2287
 Total Nets             : 7154
 Total Signal Drivers   : 791
 Total Blocks           : 147
 Total Primitive Blocks : 111
 Total Processes        : 1401
 Total Traceable Variables  : 1160
 Total Scalar Nets and Variables : 33004
Total Line Count : 5306

 Total Simulation Time: 0.171875 sec

 Current Memory Usage: 373.502 Meg

Wed Dec 20 09:54:57 2017

