<?xml version="1.0" encoding="UTF-8"?>
<symbol version="7" name="l_3">
    <symboltype>BLOCK</symboltype>
    <timestamp>2017-12-26T19:9:45</timestamp>
    <pin polarity="Input" x="0" y="-32" name="l_a(7:0)" />
    <pin polarity="Output" x="384" y="-32" name="l_out1(39:0)" />
    <graph>
        <attrtext style="alignment:BCENTER;fontsize:56;fontname:Arial" attrname="SymbolName" x="192" y="-72" type="symbol" />
        <attrtext style="fontsize:24;fontname:Arial" attrname="PinName" x="72" y="-32" type="pin l_a(7:0)" />
        <attrtext style="alignment:RIGHT;fontsize:24;fontname:Arial" attrname="PinName" x="312" y="-32" type="pin l_out1(39:0)" />
        <rect width="256" x="64" y="-64" height="64" />
        <rect width="64" x="0" y="-44" height="24" />
        <line x2="0" y1="-32" y2="-32" x1="64" />
        <rect width="64" x="320" y="-44" height="24" />
        <line x2="384" y1="-32" y2="-32" x1="320" />
    </graph>
</symbol>
