MO l_ip NULL ipcore_dir/l_ip.v vlg00/l__ip.bin 1514315567
EN l NULL C:/Plis/l_3/l.vhd sub00/vhpl02 1514315690
EN l_3 NULL C:/Plis/l_3/l_3.vhd sub00/vhpl00 1514315726
MO l_sh NULL l_sh.vf vlg2A/l__sh.bin 1514315567
AR l_3 behavioral C:/Plis/l_3/l_3.vhd sub00/vhpl01 1514315727
AR l behavioral C:/Plis/l_3/l.vhd sub00/vhpl03 1514315691
